%YAML 1.1
%TAG !u! tag:unity3d.com,2011:
--- !u!74 &7400000
AnimationClip:
  m_ObjectHideFlags: 0
  m_PrefabParentObject: {fileID: 0}
  m_PrefabInternal: {fileID: 0}
  m_Name: IntroAnimationBuilding
  serializedVersion: 6
  m_Legacy: 0
  m_Compressed: 0
  m_UseHighQualityCurve: 1
  m_RotationCurves: []
  m_CompressedRotationCurves: []
  m_EulerCurves: []
  m_PositionCurves:
  - curve:
      serializedVersion: 2
      m_Curve:
      - serializedVersion: 2
        time: 0
        value: {x: 23.36, y: 19, z: 102.95}
        inSlope: {x: 0, y: 0, z: 0}
        outSlope: {x: 0, y: 0, z: 0}
        tangentMode: 0
      - serializedVersion: 2
        time: 0.28333333
        value: {x: 23.36, y: 13.87, z: 72.24}
        inSlope: {x: 0, y: -11.199999, z: -90.79999}
        outSlope: {x: 0, y: -11.199999, z: -90.79999}
        tangentMode: 0
      - serializedVersion: 2
        time: 0.4
        value: {x: 23.36, y: 12.75, z: 63.16}
        inSlope: {x: 0, y: -4.800004, z: -99.1246}
        outSlope: {x: 0, y: -4.800004, z: -99.1246}
        tangentMode: 0
      - serializedVersion: 2
        time: 0.5
        value: {x: 21.652, y: 12.49, z: 50.763}
        inSlope: {x: -22.909098, y: -5.6727333, z: -119.07273}
        outSlope: {x: -22.909098, y: -5.6727333, z: -119.07273}
        tangentMode: 0
      - serializedVersion: 2
        time: 0.5833333
        value: {x: 19.16, y: 11.58, z: 41.33}
        inSlope: {x: -25.470001, y: -8.159997, z: -94.26601}
        outSlope: {x: -25.470001, y: -8.159997, z: -94.26601}
        tangentMode: 0
      - serializedVersion: 2
        time: 0.6666667
        value: {x: 17.407, y: 11.13, z: 35.052}
        inSlope: {x: -16.828802, y: 0, z: -60.268833}
        outSlope: {x: -16.828802, y: 0, z: -60.268833}
        tangentMode: 0
      - serializedVersion: 2
        time: 1
        value: {x: 3.16, y: 19.05, z: 14.46}
        inSlope: {x: 0, y: 24.520002, z: -40.320007}
        outSlope: {x: 0, y: 24.520002, z: -40.320007}
        tangentMode: 0
      - serializedVersion: 2
        time: 1.1666666
        value: {x: 3.16, y: 23.39, z: 9.42}
        inSlope: {x: 0, y: 25.687504, z: -52.425007}
        outSlope: {x: 0, y: 25.687504, z: -52.425007}
        tangentMode: 0
      - serializedVersion: 2
        time: 1.2666667
        value: {x: 0, y: 25.9, z: 0.48}
        inSlope: {x: 0, y: 8.250017, z: 0}
        outSlope: {x: 0, y: 8.250017, z: 0}
        tangentMode: 0
      - serializedVersion: 2
        time: 1.4333333
        value: {x: 0, y: 26.45, z: 0.48}
        inSlope: {x: 0, y: 0, z: 0}
        outSlope: {x: 0, y: 0, z: 0}
        tangentMode: 0
      - serializedVersion: 2
        time: 1.7666667
        value: {x: 0, y: 20.412, z: 0.48}
        inSlope: {x: 0, y: 0, z: 0}
        outSlope: {x: 0, y: 0, z: 0}
        tangentMode: 0
      m_PreInfinity: 2
      m_PostInfinity: 2
      m_RotationOrder: 4
    path: 
  m_ScaleCurves: []
  m_FloatCurves: []
  m_PPtrCurves: []
  m_SampleRate: 60
  m_WrapMode: 0
  m_Bounds:
    m_Center: {x: 0, y: 0, z: 0}
    m_Extent: {x: 0, y: 0, z: 0}
  m_ClipBindingConstant:
    genericBindings:
    - serializedVersion: 2
      path: 0
      attribute: 1
      script: {fileID: 0}
      typeID: 4
      customType: 0
      isPPtrCurve: 0
    pptrCurveMapping: []
  m_AnimationClipSettings:
    serializedVersion: 2
    m_AdditiveReferencePoseClip: {fileID: 0}
    m_AdditiveReferencePoseTime: 0
    m_StartTime: 0
    m_StopTime: 1.85
    m_OrientationOffsetY: 0
    m_Level: 0
    m_CycleOffset: 0
    m_HasAdditiveReferencePose: 0
    m_LoopTime: 0
    m_LoopBlend: 0
    m_LoopBlendOrientation: 0
    m_LoopBlendPositionY: 0
    m_LoopBlendPositionXZ: 0
    m_KeepOriginalOrientation: 0
    m_KeepOriginalPositionY: 1
    m_KeepOriginalPositionXZ: 0
    m_HeightFromFeet: 0
    m_Mirror: 0
  m_EditorCurves:
  - curve:
      serializedVersion: 2
      m_Curve:
      - serializedVersion: 2
        time: 0
        value: 23.36
        inSlope: 0
        outSlope: 0
        tangentMode: 136
      - serializedVersion: 2
        time: 0.28333333
        value: 23.36
        inSlope: 0
        outSlope: 0
        tangentMode: 136
      - serializedVersion: 2
        time: 0.4
        value: 23.36
        inSlope: 0
        outSlope: 0
        tangentMode: 136
      - serializedVersion: 2
        time: 0.5
        value: 21.652
        inSlope: -22.909098
        outSlope: -22.909098
        tangentMode: 136
      - serializedVersion: 2
        time: 0.5833333
        value: 19.16
        inSlope: -25.470001
        outSlope: -25.470001
        tangentMode: 136
      - serializedVersion: 2
        time: 0.6666667
        value: 17.407
        inSlope: -16.828802
        outSlope: -16.828802
        tangentMode: 136
      - serializedVersion: 2
        time: 1
        value: 3.16
        inSlope: 0
        outSlope: 0
        tangentMode: 136
      - serializedVersion: 2
        time: 1.1666666
        value: 3.16
        inSlope: 0
        outSlope: 0
        tangentMode: 136
      - serializedVersion: 2
        time: 1.2666667
        value: 0
        inSlope: 0
        outSlope: 0
        tangentMode: 136
      - serializedVersion: 2
        time: 1.4333333
        value: 0
        inSlope: 0
        outSlope: 0
        tangentMode: 136
      - serializedVersion: 2
        time: 1.7666667
        value: 0
        inSlope: 0
        outSlope: 0
        tangentMode: 136
      m_PreInfinity: 2
      m_PostInfinity: 2
      m_RotationOrder: 4
    attribute: m_LocalPosition.x
    path: 
    classID: 4
    script: {fileID: 0}
  - curve:
      serializedVersion: 2
      m_Curve:
      - serializedVersion: 2
        time: 0
        value: 19
        inSlope: 0
        outSlope: 0
        tangentMode: 136
      - serializedVersion: 2
        time: 0.28333333
        value: 13.87
        inSlope: -11.199999
        outSlope: -11.199999
        tangentMode: 136
      - serializedVersion: 2
        time: 0.4
        value: 12.75
        inSlope: -4.800004
        outSlope: -4.800004
        tangentMode: 136
      - serializedVersion: 2
        time: 0.5
        value: 12.49
        inSlope: -5.6727333
        outSlope: -5.6727333
        tangentMode: 136
      - serializedVersion: 2
        time: 0.5833333
        value: 11.58
        inSlope: -8.159997
        outSlope: -8.159997
        tangentMode: 136
      - serializedVersion: 2
        time: 0.6666667
        value: 11.13
        inSlope: 0
        outSlope: 0
        tangentMode: 136
      - serializedVersion: 2
        time: 1
        value: 19.05
        inSlope: 24.520002
        outSlope: 24.520002
        tangentMode: 136
      - serializedVersion: 2
        time: 1.1666666
        value: 23.39
        inSlope: 25.687504
        outSlope: 25.687504
        tangentMode: 136
      - serializedVersion: 2
        time: 1.2666667
        value: 25.9
        inSlope: 8.250017
        outSlope: 8.250017
        tangentMode: 136
      - serializedVersion: 2
        time: 1.4333333
        value: 26.45
        inSlope: 0
        outSlope: 0
        tangentMode: 136
      - serializedVersion: 2
        time: 1.7666667
        value: 20.412
        inSlope: 0
        outSlope: 0
        tangentMode: 136
      m_PreInfinity: 2
      m_PostInfinity: 2
      m_RotationOrder: 4
    attribute: m_LocalPosition.y
    path: 
    classID: 4
    script: {fileID: 0}
  - curve:
      serializedVersion: 2
      m_Curve:
      - serializedVersion: 2
        time: 0
        value: 102.95
        inSlope: 0
        outSlope: 0
        tangentMode: 136
      - serializedVersion: 2
        time: 0.28333333
        value: 72.24
        inSlope: -90.79999
        outSlope: -90.79999
        tangentMode: 136
      - serializedVersion: 2
        time: 0.4
        value: 63.16
        inSlope: -99.1246
        outSlope: -99.1246
        tangentMode: 136
      - serializedVersion: 2
        time: 0.5
        value: 50.763
        inSlope: -119.07273
        outSlope: -119.07273
        tangentMode: 136
      - serializedVersion: 2
        time: 0.5833333
        value: 41.33
        inSlope: -94.26601
        outSlope: -94.26601
        tangentMode: 136
      - serializedVersion: 2
        time: 0.6666667
        value: 35.052
        inSlope: -60.268833
        outSlope: -60.268833
        tangentMode: 136
      - serializedVersion: 2
        time: 1
        value: 14.46
        inSlope: -40.320007
        outSlope: -40.320007
        tangentMode: 136
      - serializedVersion: 2
        time: 1.1666666
        value: 9.42
        inSlope: -52.425007
        outSlope: -52.425007
        tangentMode: 136
      - serializedVersion: 2
        time: 1.2666667
        value: 0.48
        inSlope: 0
        outSlope: 0
        tangentMode: 136
      - serializedVersion: 2
        time: 1.4333333
        value: 0.48
        inSlope: 0
        outSlope: 0
        tangentMode: 136
      - serializedVersion: 2
        time: 1.7666667
        value: 0.48
        inSlope: 0
        outSlope: 0
        tangentMode: 136
      m_PreInfinity: 2
      m_PostInfinity: 2
      m_RotationOrder: 4
    attribute: m_LocalPosition.z
    path: 
    classID: 4
    script: {fileID: 0}
  m_EulerEditorCurves: []
  m_HasGenericRootTransform: 1
  m_HasMotionFloatCurves: 0
  m_GenerateMotionCurves: 0
  m_Events:
  - time: 1.85
    functionName: IntroAnimationEnded
    data: 
    objectReferenceParameter: {fileID: 0}
    floatParameter: 0
    intParameter: 0
    messageOptions: 0
